session4
…
ra_cst_div_qtotal: A derived variable representing the advertising revenue per unit of circulation (ra_cst / qtotal). This variable is calculated to assess the efficiency or effectiveness of advertising revenue in relation to the newspaper’s circulation size

newspapers <-
  newspapers |>
  select(
    year, id_news, after_national, local, national, ra_cst, ps_cst, qtotal
    ) |> 
  mutate(ra_cst_div_qtotal = ra_cst / qtotal, 
         across(c(id_news, after_national, local, national), as.factor),
         year = as.integer(year)) |> 
  rename()

newspapers

# A tibble: 1,196 × 9
    year id_news after_national local national    ra_cst ps_cst  qtotal
   <int> <fct>   <fct>          <fct> <fct>        <dbl>  <dbl>   <dbl>
 1  1960 1       0              1     0         52890272   2.29  94478.
 2  1961 1       0              1     0         56601060   2.20  96289.
 3  1962 1       0              1     0         64840752   2.13  97313.
 4  1963 1       0              1     0         70582944   2.43 101068.
 5  1964 1       0              1     0         74977888   2.35 102103.
 6  1965 1       0              1     0         74438248   2.29 105169.
 7  1966 1       0              1     0         81383000   2.31 126235.
 8  1967 1       0              1     0         80263152   2.88 128667.
 9  1968 1       0              1     0         87165704   3.45 131824.
10  1969 1       0              1     0        102596384   3.28 132417.
# ℹ 1,186 more rows
# ℹ 1 more variable: ra_cst_div_qtotal <dbl>
…
